…
```r
steps_day <- data %>%
  filter (!is.na(steps)) %>%
  group_by(date) %>%
  summarise(steps_n=n(),
            steps_sum=sum(steps),
            steps_mean=mean(steps),
            steps_median=median(steps))

steps_day[,c(1,3)] 
```

```
## # A tibble: 53 x 2
##    date       steps_sum
##    <date>         <int>
##  1 2012-10-02       126
##  2 2012-10-03     11352
##  3 2012-10-04     12116
##  4 2012-10-05     13294
##  5 2012-10-06     15420
##  6 2012-10-07     11015
##  7 2012-10-09     12811
##  8 2012-10-10      9900
##  9 2012-10-11     10304
## 10 2012-10-12     17382
## # ... with 43 more rows
```
…
**3. Calculate mean and median:**  
Mean and median is already calculated in '1. Number of steps'...

```r
steps_day[,c(1,4,5)]
```

```
## # A tibble: 53 x 3
##    date       steps_mean steps_median
##    <date>          <dbl>        <dbl>
##  1 2012-10-02      0.438            0
##  2 2012-10-03     39.4              0
##  3 2012-10-04     42.1              0
##  4 2012-10-05     46.2              0
##  5 2012-10-06     53.5              0
##  6 2012-10-07     38.2              0
##  7 2012-10-09     44.5              0
##  8 2012-10-10     34.4              0
##  9 2012-10-11     35.8              0
## 10 2012-10-12     60.4              0
## # ... with 43 more rows
```
…
**2a. Mean and median**

```r
steps_day_impute_NA[,c(1,4,5)]
```

```
## # A tibble: 61 x 3
##    date       steps_mean steps_median
##    <date>          <dbl>        <dbl>
##  1 2012-10-01      3.96             0
##  2 2012-10-02      0.438            0
##  3 2012-10-03     39.4              0
##  4 2012-10-04     42.1              0
##  5 2012-10-05     46.2              0
##  6 2012-10-06     53.5              0
##  7 2012-10-07     38.2              0
##  8 2012-10-08      3.96             0
##  9 2012-10-09     44.5              0
## 10 2012-10-10     34.4              0
## # ... with 51 more rows
```
…
